<?xml version="1.0" encoding="UTF-8"?>
<session version="1.0">
<refactoring comment="Copy source folder &apos;resources&apos; to &apos;springproject&apos;&#x0A;- Original project: &apos;SpringHibernateExample&apos;&#x0A;- Destination element: &apos;springproject&apos;&#x0A;- Original element: &apos;SpringHibernateExample/src/main/resources&apos;" description="Copy source folder" element1="/src\/main\/resources" flags="6" id="org.eclipse.jdt.ui.copy" policy="org.eclipse.jdt.ui.copyRoots" roots="1" stamp="1469025323355" target="/springproject" version="1.0"/>
</session>