INDEX VERSION 1.3+/Users/Sam/Desktop/Ms3-project/.metadata/.plugins/org.eclipse.wst.jsdt.core/indexes
1073647944.index
196225663.index
1139722863.index
2111174440.index
1059232879.index
2111174440.index
